[
	{
		"Country": "India",
		"Latitude": 22,
		"Longitude": 79
	},
	{
		"Country": "Austria",
		"Latitude": 47.33333,
		"Longitude": 13.33333
	},
	{
		"Country": "Belgium",
		"Latitude": 50.75,
		"Longitude": 4.5
	},
	{
		"Country": "Czech Republic",
		"Latitude": 49.75,
		"Longitude": 15.75
	},
	{
		"Country": "Denmark",
		"Latitude": 56,
		"Longitude": 10
	},
	{
		"Country": "Estonia",
		"Latitude": 59,
		"Longitude": 26
	},
	{
		"Country": "Finland",
		"Latitude": 64,
		"Longitude": 26
	},
	{
		"Country": "France",
		"Latitude": 46,
		"Longitude": 2
	},
	{
		"Country": "Germany",
		"Latitude": 51.5,
		"Longitude": 10.5
	},
	{
		"Country": "Greece",
		"Latitude": 37.98381,
		"Longitude": 23.727539
	},
	{
		"Country": "Hungary",
		"Latitude": 47,
		"Longitude": 20
	},
	{
		"Country": "Ireland",
		"Latitude": 54.75844,
		"Longitude": -2.69531
	},
	{
		"Country": "Italy",
		"Latitude": 41.8719,
		"Longitude": 12.5674
	},
	{
		"Country": "Latvia",
		"Latitude": 57,
		"Longitude": 25
	},
	{
		"Country": "Lithuania",
		"Latitude": 55.41667,
		"Longitude": 24
	},
	{
		"Country": "Luxembourg",
		"Latitude": 49.75,
		"Longitude": 6.16667
	},
	{
		"Country": "Netherlands",
		"Latitude": 52.25,
		"Longitude": 5.75
	},
	{
		"Country": "Norway",
		"Latitude": 62,
		"Longitude": 10
	},
	{
		"Country": "Poland",
		"Latitude": 52,
		"Longitude": 20
	},
	{
		"Country": "Portugal",
		"Latitude": 39.3999,
		"Longitude": 8.2245
	},
	{
		"Country": "Slovak Republic",
		"Latitude": 48.66667,
		"Longitude": 19.5
	},
	{
		"Country": "Slovenia",
		"Latitude": 46.08333,
		"Longitude": 15
	},
	{
		"Country": "Spain",
		"Latitude": 40,
		"Longitude": -4
	},
	{
		"Country": "Sweden",
		"Latitude": 62,
		"Longitude": 15
	},
	{
		"Country": "Turkey",
		"Latitude": 39,
		"Longitude": 35
	},
	{
		"Country": "United Kingdom",
		"Latitude": 54.75844,
		"Longitude": -2.69531
	}
]
