[
  {
    "Country": "Australia",
    "Gas": "PM(2.5)",
    "Total": 8.351,
    "Total Mobile Source": 3.548,
    "MSP": 42.49,
    "Road Transport": 2.649,
    "RTP": 31.72,
    "Waste": 0.276,
    "WP": 3.3,
    "Industrial": 0.781,
    "IP": 9.35,
    "Power Stations": 0.822,
    "PSP": 9.84,
    "Agriculture": 0.275,
    "AP": 3.29
  },
  {
    "Country": "Austria",
    "Gas": "PM(2.5)",
    "Total": 9.644,
    "Total Mobile Source": 3.833,
    "MSP": 39.74,
    "Road Transport": 3.124,
    "RTP": 32.39,
    "Waste": 0.711,
    "WP": 7.37,
    "Industrial": 1.02,
    "IP": 10.58,
    "Power Stations": 0.325,
    "PSP": 3.37,
    "Agriculture": 0.631,
    "AP": 6.54
  },
  {
    "Country": "Belgium",
    "Gas": "PM(2.5)",
    "Total": 460.574,
    "Total Mobile Source": 39.809,
    "MSP": 8.64,
    "Road Transport": 17.198,
    "RTP": 3.73,
    "Waste": 2.771,
    "WP": 0.6,
    "Industrial": 12.494,
    "IP": 2.71,
    "Power Stations": 3.113,
    "PSP": 0.68,
    "Agriculture": 385.189,
    "AP": 83.63
  },
  {
    "Country": "Canada",
    "Gas": "PM(2.5)",
    "Total": 43.657,
    "Total Mobile Source": 14.858,
    "MSP": 34.03,
    "Road Transport": 14.858,
    "RTP": 34.03,
    "Waste": 0.003,
    "WP": 0.01,
    "Industrial": 3.848,
    "IP": 8.81,
    "Power Stations": 2.57,
    "PSP": 5.89,
    "Agriculture": 7.52,
    "AP": 17.23
  },
  {
    "Country": "Chile",
    "Gas": "PM(2.5)",
    "Total": 10.485,
    "Total Mobile Source": 4.342,
    "MSP": 41.41,
    "Road Transport": 3.035,
    "RTP": 28.95,
    "Waste": 0.393,
    "WP": 3.75,
    "Industrial": 0.592,
    "IP": 5.65,
    "Power Stations": 1.464,
    "PSP": 13.96,
    "Agriculture": 0.659,
    "AP": 6.29
  },
  {
    "Country": "Czech Republic",
    "Gas": "PM(2.5)",
    "Total": 6.208,
    "Total Mobile Source": 2.529,
    "MSP": 40.74,
    "Road Transport": 1.497,
    "RTP": 24.11,
    "Waste": 0.269,
    "WP": 4.33,
    "Industrial": 0.238,
    "IP": 3.83,
    "Power Stations": 0.388,
    "PSP": 6.25,
    "Agriculture": 1.287,
    "AP": 20.73
  },
  {
    "Country": "Denmark",
    "Gas": "PM(2.5)",
    "Total": 4.377,
    "Total Mobile Source": 0.684,
    "MSP": 15.63,
    "Road Transport": 0.382,
    "RTP": 8.73,
    "Waste": 0.091,
    "WP": 2.08,
    "Industrial": 1.284,
    "IP": 29.34,
    "Power Stations": 1.824,
    "PSP": 41.67,
    "Agriculture": 0.112,
    "AP": 2.56
  },
  {
    "Country": "Estonia",
    "Gas": "PM(2.5)",
    "Total": 7.471,
    "Total Mobile Source": 3.137,
    "MSP": 41.99,
    "Road Transport": 1.912,
    "RTP": 25.59,
    "Waste": 0.104,
    "WP": 1.39,
    "Industrial": 1.465,
    "IP": 19.61,
    "Power Stations": 0.336,
    "PSP": 4.5,
    "Agriculture": 0.517,
    "AP": 6.92
  },
  {
    "Country": "Finland",
    "Gas": "PM(2.5)",
    "Total": 80.477,
    "Total Mobile Source": 28.631,
    "MSP": 35.58,
    "Road Transport": 20.622,
    "RTP": 25.62,
    "Waste": 10.69,
    "WP": 13.28,
    "Industrial": 9.234,
    "IP": 11.47,
    "Power Stations": 1.014,
    "PSP": 1.26,
    "Agriculture": 10.286,
    "AP": 12.78
  },
  {
    "Country": "France",
    "Gas": "PM(2.5)",
    "Total": 67.594,
    "Total Mobile Source": 29.962,
    "MSP": 44.33,
    "Road Transport": 19.119,
    "RTP": 28.29,
    "Waste": 6.375,
    "WP": 9.43,
    "Industrial": 2.972,
    "IP": 4.4,
    "Power Stations": 4.695,
    "PSP": 6.95,
    "Agriculture": 4.471,
    "AP": 6.61
  },
  {
    "Country": "Germany",
    "Gas": "PM(2.5)",
    "Total": 15.815,
    "Total Mobile Source": 5.833,
    "MSP": 36.88,
    "Road Transport": 2.969,
    "RTP": 18.77,
    "Waste": 0.076,
    "WP": 0.48,
    "Industrial": 2.023,
    "IP": 12.79,
    "Power Stations": 2.199,
    "PSP": 13.9,
    "Agriculture": 2.715,
    "AP": 17.17
  },
  {
    "Country": "Greece",
    "Gas": "PM(2.5)",
    "Total": 8.221,
    "Total Mobile Source": 3.008,
    "MSP": 36.59,
    "Road Transport": 2.491,
    "RTP": 30.3,
    "Waste": 1.068,
    "WP": 12.99,
    "Industrial": 0.651,
    "IP": 7.92,
    "Power Stations": 0.221,
    "PSP": 2.69,
    "Agriculture": 0.782,
    "AP": 9.51
  },
  {
    "Country": "Hungary",
    "Gas": "PM(2.5)",
    "Total": 0.788,
    "Total Mobile Source": 0.614,
    "MSP": 77.92,
    "Road Transport": 0.118,
    "RTP": 14.97,
    "Waste": 0.011,
    "WP": 1.4,
    "Industrial": 0.009,
    "IP": 1.14,
    "Power Stations": 0,
    "PSP": 0,
    "Agriculture": 0.036,
    "AP": 4.57
  },
  {
    "Country": "Iceland",
    "Gas": "PM(2.5)",
    "Total": 6.491,
    "Total Mobile Source": 1.86,
    "MSP": 28.66,
    "Road Transport": 1.566,
    "RTP": 24.13,
    "Waste": 0.287,
    "WP": 4.42,
    "Industrial": 1.609,
    "IP": 24.79,
    "Power Stations": 0.282,
    "PSP": 4.34,
    "Agriculture": 0.887,
    "AP": 13.67
  },
  {
    "Country": "Ireland",
    "Gas": "PM(2.5)",
    "Total": 54.175,
    "Total Mobile Source": 23.944,
    "MSP": 44.2,
    "Road Transport": 15.069,
    "RTP": 27.82,
    "Waste": 2.552,
    "WP": 4.71,
    "Industrial": 6.999,
    "IP": 12.92,
    "Power Stations": 0.324,
    "PSP": 0.6,
    "Agriculture": 5.287,
    "AP": 9.76
  },
  {
    "Country": "Italy",
    "Gas": "PM(2.5)",
    "Total": 6.795,
    "Total Mobile Source": 0.88,
    "MSP": 12.95,
    "Road Transport": 0.582,
    "RTP": 8.57,
    "Waste": 0.216,
    "WP": 3.18,
    "Industrial": 2.325,
    "IP": 34.22,
    "Power Stations": 2.521,
    "PSP": 37.1,
    "Agriculture": 0.271,
    "AP": 3.99
  },
  {
    "Country": "Japan",
    "Gas": "PM(2.5)",
    "Total": 3.828,
    "Total Mobile Source": 1.398,
    "MSP": 36.52,
    "Road Transport": 1.278,
    "RTP": 33.39,
    "Waste": 0.508,
    "WP": 13.27,
    "Industrial": 0.206,
    "IP": 5.38,
    "Power Stations": 0.12,
    "PSP": 3.13,
    "Agriculture": 0.318,
    "AP": 8.31
  },
  {
    "Country": "Latvia",
    "Gas": "PM(2.5)",
    "Total": 1.121,
    "Total Mobile Source": 0.416,
    "MSP": 37.11,
    "Road Transport": 0.378,
    "RTP": 33.72,
    "Waste": 0.084,
    "WP": 7.49,
    "Industrial": 0.116,
    "IP": 10.35,
    "Power Stations": 0.075,
    "PSP": 6.69,
    "Agriculture": 0.052,
    "AP": 4.64
  },
  {
    "Country": "Lithuania",
    "Gas": "PM(2.5)",
    "Total": 5.755,
    "Total Mobile Source": 2.789,
    "MSP": 48.46,
    "Road Transport": 1.393,
    "RTP": 24.21,
    "Waste": 0.559,
    "WP": 9.71,
    "Industrial": 0.345,
    "IP": 5.99,
    "Power Stations": 0.14,
    "PSP": 2.43,
    "Agriculture": 0.529,
    "AP": 9.19
  },
  {
    "Country": "Luxembourg",
    "Gas": "PM(2.5)",
    "Total": 8.668,
    "Total Mobile Source": 3.624,
    "MSP": 41.81,
    "Road Transport": 1.114,
    "RTP": 12.85,
    "Waste": 0.294,
    "WP": 3.39,
    "Industrial": 1.936,
    "IP": 22.34,
    "Power Stations": 1.269,
    "PSP": 14.64,
    "Agriculture": 0.431,
    "AP": 4.97
  },
  {
    "Country": "Netherlands",
    "Gas": "PM(2.5)",
    "Total": 70.822,
    "Total Mobile Source": 17.909,
    "MSP": 25.29,
    "Road Transport": 13.526,
    "RTP": 19.1,
    "Waste": 4.601,
    "WP": 6.5,
    "Industrial": 24.323,
    "IP": 34.34,
    "Power Stations": 7.155,
    "PSP": 10.1,
    "Agriculture": 3.308,
    "AP": 4.67
  },
  {
    "Country": "New Zealand",
    "Gas": "PM(2.5)",
    "Total": 18.482,
    "Total Mobile Source": 5.24,
    "MSP": 28.35,
    "Road Transport": 3.9,
    "RTP": 21.1,
    "Waste": 0.451,
    "WP": 2.44,
    "Industrial": 6.445,
    "IP": 34.87,
    "Power Stations": 0.4,
    "PSP": 2.16,
    "Agriculture": 2.046,
    "AP": 11.07
  },
  {
    "Country": "Norway",
    "Gas": "PM(2.5)",
    "Total": 3.936,
    "Total Mobile Source": 1.594,
    "MSP": 40.5,
    "Road Transport": 1.375,
    "RTP": 34.93,
    "Waste": 0.184,
    "WP": 4.67,
    "Industrial": 0.474,
    "IP": 12.04,
    "Power Stations": 0.117,
    "PSP": 2.97,
    "Agriculture": 0.192,
    "AP": 4.88
  },
  {
    "Country": "Poland",
    "Gas": "PM(2.5)",
    "Total": 3.56,
    "Total Mobile Source": 1.211,
    "MSP": 34.02,
    "Road Transport": 0.825,
    "RTP": 23.17,
    "Waste": 0.129,
    "WP": 3.62,
    "Industrial": 0.952,
    "IP": 26.74,
    "Power Stations": 0.321,
    "PSP": 9.02,
    "Agriculture": 0.122,
    "AP": 3.43
  },
  {
    "Country": "Portugal",
    "Gas": "PM(2.5)",
    "Total": 0,
    "Total Mobile Source": 0,
    "MSP": 0,
    "Road Transport": 0,
    "RTP": 0,
    "Waste": 0,
    "WP": 0,
    "Industrial": 0,
    "IP": 0,
    "Power Stations": 0,
    "PSP": 0,
    "Agriculture": 0,
    "AP": 0
  },
  {
    "Country": "Slovak Republic",
    "Gas": "PM(2.5)",
    "Total": 71.889,
    "Total Mobile Source": 14.531,
    "MSP": 20.21,
    "Road Transport": 9.491,
    "RTP": 13.2,
    "Waste": 32.121,
    "WP": 44.68,
    "Industrial": 7.201,
    "IP": 10.02,
    "Power Stations": 3.683,
    "PSP": 5.12,
    "Agriculture": 4.862,
    "AP": 6.76
  },
  {
    "Country": "Slovenia",
    "Gas": "PM(2.5)",
    "Total": 12.447,
    "Total Mobile Source": 5.538,
    "MSP": 44.49,
    "Road Transport": 3.822,
    "RTP": 30.71,
    "Waste": 0.848,
    "WP": 6.81,
    "Industrial": 0.715,
    "IP": 5.74,
    "Power Stations": 0.906,
    "PSP": 7.28,
    "Agriculture": 0.618,
    "AP": 4.97
  },
  {
    "Country": "Spain",
    "Gas": "PM(2.5)",
    "Total": 4.559,
    "Total Mobile Source": 2.254,
    "MSP": 49.44,
    "Road Transport": 1.381,
    "RTP": 30.29,
    "Waste": 0.308,
    "WP": 6.76,
    "Industrial": 0.4,
    "IP": 8.77,
    "Power Stations": 0.073,
    "PSP": 1.6,
    "Agriculture": 0.143,
    "AP": 3.14
  },
  {
    "Country": "Sweden",
    "Gas": "PM(2.5)",
    "Total": 262.486,
    "Total Mobile Source": 15.66,
    "MSP": 5.97,
    "Road Transport": 8.374,
    "RTP": 3.19,
    "Waste": 31.719,
    "WP": 12.08,
    "Industrial": 130.861,
    "IP": 49.85,
    "Power Stations": 37.72,
    "PSP": 14.37,
    "Agriculture": 38.152,
    "AP": 14.53
  },
  {
    "Country": "Turkey",
    "Gas": "PM(2.5)",
    "Total": 59.495,
    "Total Mobile Source": 21.057,
    "MSP": 35.39,
    "Road Transport": 12.889,
    "RTP": 21.66,
    "Waste": 3.567,
    "WP": 6,
    "Industrial": 16.884,
    "IP": 28.38,
    "Power Stations": 2.257,
    "PSP": 3.79,
    "Agriculture": 2.841,
    "AP": 4.78
  },
  {
    "Country": "United Kingdom",
    "Gas": "PM(2.5)",
    "Total": 770.692,
    "Total Mobile Source": 218.162,
    "MSP": 28.31,
    "Road Transport": 103.04,
    "RTP": 13.37,
    "Waste": 183.954,
    "WP": 23.87,
    "Industrial": 168.192,
    "IP": 21.82,
    "Power Stations": 97.344,
    "PSP": 12.63,
    "Agriculture": 0,
    "AP": 0
  }
]