[
  {
    "Country": "Australia",
    "Gas": "Sulphur Oxide",
    "Total": 644.28,
    "Road Transport": 16.9,
    "RTP": 2.62,
    "Power Stations": 525.64,
    "PSP": 81.59,
    "Industrial": 74.88,
    "IP": 11.62,
    "Waste": 13.43,
    "WP": 2.08,
    "Miscellaneous": 0,
    "MiP": 0,
    "Mobile": 13.43,
    "MP": 2.08
  },
  {
    "Country": "Austria",
    "Gas": "Sulphur Oxide",
    "Total": 9.75,
    "Road Transport": 0.14,
    "RTP": 1.44,
    "Power Stations": 0.96,
    "PSP": 9.8,
    "Industrial": 8.47,
    "IP": 86.85,
    "Waste": 0.08,
    "WP": 0.84,
    "Miscellaneous": 0.02,
    "MiP": 0.24,
    "Mobile": 0.08,
    "MP": 0.84
  },
  {
    "Country": "Belgium",
    "Gas": "Sulphur Oxide",
    "Total": 12.88,
    "Road Transport": 0.11,
    "RTP": 0.87,
    "Power Stations": 0.82,
    "PSP": 6.33,
    "Industrial": 9.62,
    "IP": 74.66,
    "Waste": 0.27,
    "WP": 2.06,
    "Miscellaneous": 1.81,
    "MiP": 14.01,
    "Mobile": 0.27,
    "MP": 2.06
  },
  {
    "Country": "Canada",
    "Gas": "Sulphur Oxide",
    "Total": 558.25,
    "Road Transport": 1.71,
    "RTP": 0.31,
    "Power Stations": 214.14,
    "PSP": 38.36,
    "Industrial": 271.89,
    "IP": 48.7,
    "Waste": 9.75,
    "WP": 1.75,
    "Miscellaneous": 51.02,
    "MiP": 9.14,
    "Mobile": 9.75,
    "MP": 1.75
  },
  {
    "Country": "Chile",
    "Gas": "Sulphur Oxide",
    "Total": 248.46,
    "Road Transport": 0.16,
    "RTP": 0.06,
    "Power Stations": 30.03,
    "PSP": 12.09,
    "Industrial": 217.58,
    "IP": 87.57,
    "Waste": 0,
    "WP": 0,
    "Miscellaneous": 0.69,
    "MiP": 0.28,
    "Mobile": 0,
    "MP": 0
  },
  {
    "Country": "Czech Republic",
    "Gas": "Sulphur Oxide",
    "Total": 71.81,
    "Road Transport": 0.13,
    "RTP": 0.18,
    "Power Stations": 49.55,
    "PSP": 69,
    "Industrial": 18.85,
    "IP": 26.26,
    "Waste": 0.01,
    "WP": 0.01,
    "Miscellaneous": 3.26,
    "MiP": 4.54,
    "Mobile": 0.01,
    "MP": 0.01
  },
  {
    "Country": "Denmark",
    "Gas": "Sulphur Oxide",
    "Total": 7.55,
    "Road Transport": 0.08,
    "RTP": 1.02,
    "Power Stations": 2.36,
    "PSP": 31.3,
    "Industrial": 2.57,
    "IP": 34,
    "Waste": 0.63,
    "WP": 8.33,
    "Miscellaneous": 1.29,
    "MiP": 17.02,
    "Mobile": 0.63,
    "MP": 8.33
  },
  {
    "Country": "Estonia",
    "Gas": "Sulphur Oxide",
    "Total": 30.2,
    "Road Transport": 0.01,
    "RTP": 0.03,
    "Power Stations": 23.58,
    "PSP": 78.08,
    "Industrial": 6.56,
    "IP": 21.7,
    "Waste": 0.01,
    "WP": 0.05,
    "Miscellaneous": 0.03,
    "MiP": 0.1,
    "Mobile": 0.01,
    "MP": 0.05
  },
  {
    "Country": "Finland",
    "Gas": "Sulphur Oxide",
    "Total": 21.65,
    "Road Transport": 0.05,
    "RTP": 0.22,
    "Power Stations": 13.47,
    "PSP": 62.2,
    "Industrial": 6.21,
    "IP": 28.7,
    "Waste": 0.96,
    "WP": 4.42,
    "Miscellaneous": 0.01,
    "MiP": 0.04,
    "Mobile": 0.96,
    "MP": 4.42
  },
  {
    "Country": "France",
    "Gas": "Sulphur Oxide",
    "Total": 103.87,
    "Road Transport": 0.83,
    "RTP": 0.8,
    "Power Stations": 6.02,
    "PSP": 5.79,
    "Industrial": 73.64,
    "IP": 70.89,
    "Waste": 2.87,
    "WP": 2.76,
    "Miscellaneous": 17.65,
    "MiP": 16.99,
    "Mobile": 2.87,
    "MP": 2.76
  },
  {
    "Country": "Germany",
    "Gas": "Sulphur Oxide",
    "Total": 205.49,
    "Road Transport": 0.82,
    "RTP": 0.4,
    "Power Stations": 120.87,
    "PSP": 58.82,
    "Industrial": 74.64,
    "IP": 36.32,
    "Waste": 1.6,
    "WP": 0.78,
    "Miscellaneous": 5.98,
    "MiP": 2.91,
    "Mobile": 1.6,
    "MP": 0.78
  },
  {
    "Country": "Greece",
    "Gas": "Sulphur Oxide",
    "Total": 60.79,
    "Road Transport": 0.06,
    "RTP": 0.1,
    "Power Stations": 40.35,
    "PSP": 66.37,
    "Industrial": 18.87,
    "IP": 31.05,
    "Waste": 0.39,
    "WP": 0.64,
    "Miscellaneous": 0.74,
    "MiP": 1.21,
    "Mobile": 0.39,
    "MP": 0.64
  },
  {
    "Country": "Hungary",
    "Gas": "Sulphur Oxide",
    "Total": 51.52,
    "Road Transport": 0.05,
    "RTP": 0.1,
    "Power Stations": 10.16,
    "PSP": 19.72,
    "Industrial": 3.38,
    "IP": 6.57,
    "Waste": 0.06,
    "WP": 0.11,
    "Miscellaneous": 37.81,
    "MiP": 73.39,
    "Mobile": 0.06,
    "MP": 0.11
  },
  {
    "Country": "Iceland",
    "Gas": "Sulphur Oxide",
    "Total": 27.6,
    "Road Transport": 0.01,
    "RTP": 0.02,
    "Power Stations": 0,
    "PSP": 0,
    "Industrial": 0.37,
    "IP": 1.32,
    "Waste": 3.73,
    "WP": 13.53,
    "Miscellaneous": 19.76,
    "MiP": 71.6,
    "Mobile": 3.73,
    "MP": 13.53
  },
  {
    "Country": "Ireland",
    "Gas": "Sulphur Oxide",
    "Total": 5.92,
    "Road Transport": 0.05,
    "RTP": 0.78,
    "Power Stations": 2.84,
    "PSP": 47.92,
    "Industrial": 2.8,
    "IP": 47.32,
    "Waste": 0.12,
    "WP": 1.99,
    "Miscellaneous": 0,
    "MiP": 0,
    "Mobile": 0.12,
    "MP": 1.99
  },
  {
    "Country": "Italy",
    "Gas": "Sulphur Oxide",
    "Total": 94.88,
    "Road Transport": 0.41,
    "RTP": 0.43,
    "Power Stations": 8.86,
    "PSP": 9.34,
    "Industrial": 34.51,
    "IP": 36.37,
    "Waste": 22.55,
    "WP": 23.77,
    "Miscellaneous": 6.01,
    "MiP": 6.34,
    "Mobile": 22.55,
    "MP": 23.77
  },
  {
    "Country": "Japan",
    "Gas": "Sulphur Oxide",
    "Total": 811.98,
    "Road Transport": 1.2,
    "RTP": 0.15,
    "Power Stations": 195.1,
    "PSP": 24.03,
    "Industrial": 147.49,
    "IP": 18.16,
    "Waste": 231.91,
    "WP": 28.56,
    "Miscellaneous": 4.38,
    "MiP": 0.54,
    "Mobile": 231.91,
    "MP": 28.56
  },
  {
    "Country": "Latvia",
    "Gas": "Sulphur Oxide",
    "Total": 3.57,
    "Road Transport": 0.02,
    "RTP": 0.53,
    "Power Stations": 0.94,
    "PSP": 26.43,
    "Industrial": 0.84,
    "IP": 23.54,
    "Waste": 0.51,
    "WP": 14.36,
    "Miscellaneous": 0.74,
    "MiP": 20.77,
    "Mobile": 0.51,
    "MP": 14.36
  },
  {
    "Country": "Lithuania",
    "Gas": "Sulphur Oxide",
    "Total": 10.17,
    "Road Transport": 0.03,
    "RTP": 0.27,
    "Power Stations": 1.56,
    "PSP": 15.39,
    "Industrial": 2.6,
    "IP": 25.53,
    "Waste": 0.13,
    "WP": 1.3,
    "Miscellaneous": 5.72,
    "MiP": 56.22,
    "Mobile": 0.13,
    "MP": 1.3
  },
  {
    "Country": "Luxembourg",
    "Gas": "Sulphur Oxide",
    "Total": 5.55,
    "Road Transport": 0.04,
    "RTP": 0.63,
    "Power Stations": 0.02,
    "PSP": 0.38,
    "Industrial": 0.82,
    "IP": 14.8,
    "Waste": 0.05,
    "WP": 0.85,
    "Miscellaneous": 4.58,
    "MiP": 82.49,
    "Mobile": 0.05,
    "MP": 0.85
  },
  {
    "Country": "Netherlands",
    "Gas": "Sulphur Oxide",
    "Total": 19.79,
    "Road Transport": 0.2,
    "RTP": 1,
    "Power Stations": 3.99,
    "PSP": 20.17,
    "Industrial": 15.39,
    "IP": 77.76,
    "Waste": 0.11,
    "WP": 0.53,
    "Miscellaneous": 0,
    "MiP": 0.01,
    "Mobile": 0.11,
    "MP": 0.53
  },
  {
    "Country": "New Zealand",
    "Gas": "Sulphur Oxide",
    "Total": 58.97,
    "Road Transport": 11.53,
    "RTP": 19.55,
    "Power Stations": 3.91,
    "PSP": 6.64,
    "Industrial": 30.43,
    "IP": 51.6,
    "Waste": 6.55,
    "WP": 11.11,
    "Miscellaneous": 0,
    "MiP": 0,
    "Mobile": 6.55,
    "MP": 11.11
  },
  {
    "Country": "Norway",
    "Gas": "Sulphur Oxide",
    "Total": 31.66,
    "Road Transport": 0.04,
    "RTP": 0.14,
    "Power Stations": 2.11,
    "PSP": 6.67,
    "Industrial": 1.85,
    "IP": 5.84,
    "Waste": 1.26,
    "WP": 3.98,
    "Miscellaneous": 25.14,
    "MiP": 79.38,
    "Mobile": 1.26,
    "MP": 3.98
  },
  {
    "Country": "Poland",
    "Gas": "Sulphur Oxide",
    "Total": 344.63,
    "Road Transport": 0.57,
    "RTP": 0.17,
    "Power Stations": 239.47,
    "PSP": 69.49,
    "Industrial": 103.53,
    "IP": 30.04,
    "Waste": 0.19,
    "WP": 0.05,
    "Miscellaneous": 0.69,
    "MiP": 0.2,
    "Mobile": 0.19,
    "MP": 0.05
  },
  {
    "Country": "Portugal",
    "Gas": "Sulphur Oxide",
    "Total": 38.48,
    "Road Transport": 0.1,
    "RTP": 0.27,
    "Power Stations": 13.74,
    "PSP": 35.71,
    "Industrial": 18.21,
    "IP": 47.31,
    "Waste": 2.11,
    "WP": 5.49,
    "Miscellaneous": 2.21,
    "MiP": 5.73,
    "Mobile": 2.11,
    "MP": 5.49
  },
  {
    "Country": "Slovak Republic",
    "Gas": "Sulphur Oxide",
    "Total": 84.8,
    "Road Transport": 0.03,
    "RTP": 0.04,
    "Power Stations": 4.5,
    "PSP": 5.3,
    "Industrial": 4.29,
    "IP": 5.06,
    "Waste": 0.04,
    "WP": 0.04,
    "Miscellaneous": 75.91,
    "MiP": 89.51,
    "Mobile": 0.04,
    "MP": 0.04
  },
  {
    "Country": "Slovenia",
    "Gas": "Sulphur Oxide",
    "Total": 28.08,
    "Road Transport": 0.04,
    "RTP": 0.13,
    "Power Stations": 2.08,
    "PSP": 7.41,
    "Industrial": 0.8,
    "IP": 2.85,
    "Waste": 0.02,
    "WP": 0.05,
    "Miscellaneous": 25.14,
    "MiP": 89.5,
    "Mobile": 0.02,
    "MP": 0.05
  },
  {
    "Country": "Spain",
    "Gas": "Sulphur Oxide",
    "Total": 143.88,
    "Road Transport": 0.43,
    "RTP": 0.3,
    "Power Stations": 61.28,
    "PSP": 42.59,
    "Industrial": 57.93,
    "IP": 40.26,
    "Waste": 11.77,
    "WP": 8.18,
    "Miscellaneous": 0.69,
    "MiP": 0.48,
    "Mobile": 11.77,
    "MP": 8.18
  },
  {
    "Country": "Sweden",
    "Gas": "Sulphur Oxide",
    "Total": 9.52,
    "Road Transport": 0.06,
    "RTP": 0.62,
    "Power Stations": 2.93,
    "PSP": 30.75,
    "Industrial": 3.16,
    "IP": 33.14,
    "Waste": 0.59,
    "WP": 6.17,
    "Miscellaneous": 2.21,
    "MiP": 23.16,
    "Mobile": 0.59,
    "MP": 6.17
  },
  {
    "Country": "Turkey",
    "Gas": "Sulphur Oxide",
    "Total": "2,365.58",
    "Road Transport": 0.14,
    "RTP": 0.01,
    "Power Stations": "1,778.60",
    "PSP": 75.19,
    "Industrial": 493.28,
    "IP": 20.85,
    "Waste": 8.83,
    "WP": 0.37,
    "Miscellaneous": 75.91,
    "MiP": 3.21,
    "Mobile": 8.83,
    "MP": 0.37
  },
  {
    "Country": "United Kingdom",
    "Gas": "Sulphur Oxide",
    "Total": 125.69,
    "Road Transport": 1.28,
    "RTP": 1.02,
    "Power Stations": 22.57,
    "PSP": 17.95,
    "Industrial": 65.16,
    "IP": 51.84,
    "Waste": 15.34,
    "WP": 12.2,
    "Miscellaneous": 6.01,
    "MiP": 4.78,
    "Mobile": 15.34,
    "MP": 12.2
  }
]